G04 EAGLE Gerber RS-274X export*
G75*
%MOMM*%
%FSLAX34Y34*%
%LPD*%
%IN*%
%IPPOS*%
%AMOC8*
5,1,8,0,0,1.08239X$1,22.5*%
G01*
%ADD10C,0.254000*%


D10*
X0Y0D02*
X1003100Y0D01*
X1003100Y758700D01*
X0Y758700D01*
X0Y0D01*
X53340Y37556D02*
X53262Y36470D01*
X53107Y35392D01*
X52876Y34329D01*
X52569Y33284D01*
X52189Y32264D01*
X51737Y31274D01*
X51215Y30319D01*
X50626Y29403D01*
X49974Y28531D01*
X49261Y27709D01*
X48491Y26939D01*
X47669Y26226D01*
X46797Y25574D01*
X45881Y24985D01*
X44926Y24463D01*
X43936Y24011D01*
X42916Y23631D01*
X41871Y23324D01*
X40808Y23093D01*
X39730Y22938D01*
X38644Y22860D01*
X37556Y22860D01*
X36470Y22938D01*
X35392Y23093D01*
X34329Y23324D01*
X33284Y23631D01*
X32264Y24011D01*
X31274Y24463D01*
X30319Y24985D01*
X29403Y25574D01*
X28531Y26226D01*
X27709Y26939D01*
X26939Y27709D01*
X26226Y28531D01*
X25574Y29403D01*
X24985Y30319D01*
X24463Y31274D01*
X24011Y32264D01*
X23631Y33284D01*
X23324Y34329D01*
X23093Y35392D01*
X22938Y36470D01*
X22860Y37556D01*
X22860Y38644D01*
X22938Y39730D01*
X23093Y40808D01*
X23324Y41871D01*
X23631Y42916D01*
X24011Y43936D01*
X24463Y44926D01*
X24985Y45881D01*
X25574Y46797D01*
X26226Y47669D01*
X26939Y48491D01*
X27709Y49261D01*
X28531Y49974D01*
X29403Y50626D01*
X30319Y51215D01*
X31274Y51737D01*
X32264Y52189D01*
X33284Y52569D01*
X34329Y52876D01*
X35392Y53107D01*
X36470Y53262D01*
X37556Y53340D01*
X38644Y53340D01*
X39730Y53262D01*
X40808Y53107D01*
X41871Y52876D01*
X42916Y52569D01*
X43936Y52189D01*
X44926Y51737D01*
X45881Y51215D01*
X46797Y50626D01*
X47669Y49974D01*
X48491Y49261D01*
X49261Y48491D01*
X49974Y47669D01*
X50626Y46797D01*
X51215Y45881D01*
X51737Y44926D01*
X52189Y43936D01*
X52569Y42916D01*
X52876Y41871D01*
X53107Y40808D01*
X53262Y39730D01*
X53340Y38644D01*
X53340Y37556D01*
X980440Y723356D02*
X980362Y722270D01*
X980207Y721192D01*
X979976Y720129D01*
X979669Y719084D01*
X979289Y718064D01*
X978837Y717074D01*
X978315Y716119D01*
X977726Y715203D01*
X977074Y714331D01*
X976361Y713509D01*
X975591Y712739D01*
X974769Y712026D01*
X973897Y711374D01*
X972981Y710785D01*
X972026Y710263D01*
X971036Y709811D01*
X970016Y709431D01*
X968971Y709124D01*
X967908Y708893D01*
X966830Y708738D01*
X965744Y708660D01*
X964656Y708660D01*
X963570Y708738D01*
X962492Y708893D01*
X961429Y709124D01*
X960384Y709431D01*
X959364Y709811D01*
X958374Y710263D01*
X957419Y710785D01*
X956503Y711374D01*
X955631Y712026D01*
X954809Y712739D01*
X954039Y713509D01*
X953326Y714331D01*
X952674Y715203D01*
X952085Y716119D01*
X951563Y717074D01*
X951111Y718064D01*
X950731Y719084D01*
X950424Y720129D01*
X950193Y721192D01*
X950038Y722270D01*
X949960Y723356D01*
X949960Y724444D01*
X950038Y725530D01*
X950193Y726608D01*
X950424Y727671D01*
X950731Y728716D01*
X951111Y729736D01*
X951563Y730726D01*
X952085Y731681D01*
X952674Y732597D01*
X953326Y733469D01*
X954039Y734291D01*
X954809Y735061D01*
X955631Y735774D01*
X956503Y736426D01*
X957419Y737015D01*
X958374Y737537D01*
X959364Y737989D01*
X960384Y738369D01*
X961429Y738676D01*
X962492Y738907D01*
X963570Y739062D01*
X964656Y739140D01*
X965744Y739140D01*
X966830Y739062D01*
X967908Y738907D01*
X968971Y738676D01*
X970016Y738369D01*
X971036Y737989D01*
X972026Y737537D01*
X972981Y737015D01*
X973897Y736426D01*
X974769Y735774D01*
X975591Y735061D01*
X976361Y734291D01*
X977074Y733469D01*
X977726Y732597D01*
X978315Y731681D01*
X978837Y730726D01*
X979289Y729736D01*
X979669Y728716D01*
X979976Y727671D01*
X980207Y726608D01*
X980362Y725530D01*
X980440Y724444D01*
X980440Y723356D01*
X193040Y647156D02*
X192962Y646070D01*
X192807Y644992D01*
X192576Y643929D01*
X192269Y642884D01*
X191889Y641864D01*
X191437Y640874D01*
X190915Y639919D01*
X190326Y639003D01*
X189674Y638131D01*
X188961Y637309D01*
X188191Y636539D01*
X187369Y635826D01*
X186497Y635174D01*
X185581Y634585D01*
X184626Y634063D01*
X183636Y633611D01*
X182616Y633231D01*
X181571Y632924D01*
X180508Y632693D01*
X179430Y632538D01*
X178344Y632460D01*
X177256Y632460D01*
X176170Y632538D01*
X175092Y632693D01*
X174029Y632924D01*
X172984Y633231D01*
X171964Y633611D01*
X170974Y634063D01*
X170019Y634585D01*
X169103Y635174D01*
X168231Y635826D01*
X167409Y636539D01*
X166639Y637309D01*
X165926Y638131D01*
X165274Y639003D01*
X164685Y639919D01*
X164163Y640874D01*
X163711Y641864D01*
X163331Y642884D01*
X163024Y643929D01*
X162793Y644992D01*
X162638Y646070D01*
X162560Y647156D01*
X162560Y648244D01*
X162638Y649330D01*
X162793Y650408D01*
X163024Y651471D01*
X163331Y652516D01*
X163711Y653536D01*
X164163Y654526D01*
X164685Y655481D01*
X165274Y656397D01*
X165926Y657269D01*
X166639Y658091D01*
X167409Y658861D01*
X168231Y659574D01*
X169103Y660226D01*
X170019Y660815D01*
X170974Y661337D01*
X171964Y661789D01*
X172984Y662169D01*
X174029Y662476D01*
X175092Y662707D01*
X176170Y662862D01*
X177256Y662940D01*
X178344Y662940D01*
X179430Y662862D01*
X180508Y662707D01*
X181571Y662476D01*
X182616Y662169D01*
X183636Y661789D01*
X184626Y661337D01*
X185581Y660815D01*
X186497Y660226D01*
X187369Y659574D01*
X188191Y658861D01*
X188961Y658091D01*
X189674Y657269D01*
X190326Y656397D01*
X190915Y655481D01*
X191437Y654526D01*
X191889Y653536D01*
X192269Y652516D01*
X192576Y651471D01*
X192807Y650408D01*
X192962Y649330D01*
X193040Y648244D01*
X193040Y647156D01*
X980440Y37556D02*
X980362Y36470D01*
X980207Y35392D01*
X979976Y34329D01*
X979669Y33284D01*
X979289Y32264D01*
X978837Y31274D01*
X978315Y30319D01*
X977726Y29403D01*
X977074Y28531D01*
X976361Y27709D01*
X975591Y26939D01*
X974769Y26226D01*
X973897Y25574D01*
X972981Y24985D01*
X972026Y24463D01*
X971036Y24011D01*
X970016Y23631D01*
X968971Y23324D01*
X967908Y23093D01*
X966830Y22938D01*
X965744Y22860D01*
X964656Y22860D01*
X963570Y22938D01*
X962492Y23093D01*
X961429Y23324D01*
X960384Y23631D01*
X959364Y24011D01*
X958374Y24463D01*
X957419Y24985D01*
X956503Y25574D01*
X955631Y26226D01*
X954809Y26939D01*
X954039Y27709D01*
X953326Y28531D01*
X952674Y29403D01*
X952085Y30319D01*
X951563Y31274D01*
X951111Y32264D01*
X950731Y33284D01*
X950424Y34329D01*
X950193Y35392D01*
X950038Y36470D01*
X949960Y37556D01*
X949960Y38644D01*
X950038Y39730D01*
X950193Y40808D01*
X950424Y41871D01*
X950731Y42916D01*
X951111Y43936D01*
X951563Y44926D01*
X952085Y45881D01*
X952674Y46797D01*
X953326Y47669D01*
X954039Y48491D01*
X954809Y49261D01*
X955631Y49974D01*
X956503Y50626D01*
X957419Y51215D01*
X958374Y51737D01*
X959364Y52189D01*
X960384Y52569D01*
X961429Y52876D01*
X962492Y53107D01*
X963570Y53262D01*
X964656Y53340D01*
X965744Y53340D01*
X966830Y53262D01*
X967908Y53107D01*
X968971Y52876D01*
X970016Y52569D01*
X971036Y52189D01*
X972026Y51737D01*
X972981Y51215D01*
X973897Y50626D01*
X974769Y49974D01*
X975591Y49261D01*
X976361Y48491D01*
X977074Y47669D01*
X977726Y46797D01*
X978315Y45881D01*
X978837Y44926D01*
X979289Y43936D01*
X979669Y42916D01*
X979976Y41871D01*
X980207Y40808D01*
X980362Y39730D01*
X980440Y38644D01*
X980440Y37556D01*
M02*
